p1=0.777196140874 p2=0.749739390056 p3=0.777196140874
p1=0.740166747679 p2=0.347626552025 p3=0.442108647458
p1=0.426135084021 p2=0.740166747679 p3=0.882756951304
p1=0.244154100432 p2=0.105528742289 p3=0.290251703398
p1=0.795964624713 p2=0.514017265932 p3=0.261795938353
p1=0.213607026802 p2=0.777196140874 p3=0.787921978071
p1=0.290251703398 p2=0.244154100432 p3=0.795964624713
p1=0.121138386197 p2=0.70686469809 p3=0.9278927349
p1=0.889828438468 
p1=0.0262847941964 p2=0.795964624713 p3=0.7369203022
p1=0.9278927349 p2=0.787921978071 p3=0.426135084021
p1=0.156173660862 p2=0.696655160744 p3=0.749739390056
p1=0.0672396793052 p2=0.0262847941964 p3=0.0262847941964
p1=0.70686469809 p2=0.426135084021 p3=0.0672396793052
p1=0.749739390056 p2=0.814540244536 p3=0.156173660862
p2=0.156173660862 p3=0.889828438468
p1=0.7369203022 p2=0.261795938353 p3=0.696655160744
p1=0.105528742289 p2=0.121138386197 p3=0.70686469809
p1=0.514017265932 p2=0.882756951304 p3=0.347626552025
p1=0.442108647458 p2=0.7369203022 p3=0.121138386197
p1=0.814540244536 p1=0.442108647458 p3=0.740166747679
p1=0.696655160744 p2=0.889828438468 p3=0.514017265932
p1=0.882756951304 p2=0.290251703398 p3=0.105528742289
p1=0.261795938353 p2=0.0672396793052 p7=0.213607026802
p1=0.787921978071 p2=0.213607026802 p3=0.244154100432
